{
  "type": "service_account",
  "project_id": "voiceassist-188815",
  "private_key_id": "80eaaf92e808c442c17b6b403a83a52e526415c3",
  "private_key": "-----BEGIN PRIVATE KEY-----\nMIIEvQIBADANBgkqhkiG9w0BAQEFAASCBKcwggSjAgEAAoIBAQDV9ZoL0ZkTutMq\nJD1F7WoCnzaAHNl+O0T5I7rAllxFwwfzphgXXvg1Ka3sBqOdeRhXqSiZ5jMkj5Jy\nhmkH/UH8bcYqkX6jvfvU4yS+z3QvLbbOxHTAzbxHMyPm1ti476OsIbSRCh2hO1Ix\nNY0gjAc5+Lzo8UYrs34ShiljB5tyBdYINdy7MmWHU9K8KMjJ0MuCl/xAu/XK/POl\nqYrugyzjoaZ+8wg+TqFA+iUHSgfOW103SgVt1o7vAFkUmDAyYkbnPhPxScVIEc9y\n+70pkIpqx8vxIkArmERkF8ZT5LoaWwS2WmuaZzPjI9NzUaSRHPg2dr8c2bVL5nBn\nxQjtg2FDAgMBAAECggEAZv5UmqbZHLW8q5cJRc2Mz9lLV21LxueKArIP1mAq58wD\n2mYUR7/IFHNNTQY/IXEm5h/AMyEsckeIdAe+rIFdj8FZ+KjUAMdV3/s9d3qOj51e\nV/cayqrenJmCCT9X0OJOc/A/pufrLm9LV/PSzR2K5v2VFj76i9PZ9tnNN2X0jnRd\n2K1QY/ZBH3b9UBp2G0sFJFsPMm/w1ETcdNdaVT0ctQuGw4VRLt71t9y4TIWKBNF1\ng9HkywpE6WQjmmTKqBkEXWLal6d5Q8o3+Z/ECjYfH7Ag18GUsiTZIdXBIsxGkIpx\na8rbtuPYRpEc+RTMtnefIkRpfOyAYDcVVPqLIBNHIQKBgQD7TG2iuLUjmCA4V3yk\nAoSXx71P16iettFTzd3qohyV772LRqLIaFsPRCTg2je6KZgx2jLKt8N8won+5h/y\nijJ0WSb3hTazwNfGbD2C5NJXroDoEJN6+sPwY+Jx8f9H4sYtuIp8UtxwTECMpwPY\nJDeNcyVIzDwn/U/77+P3D4pz4QKBgQDZ9ldF18SdKJmvMt64n4KRPb9b2voiMoSc\n6XFGcGTm+JAwcI1U2wBwhRFpWQa+VpwDVdtwX+U3BoeOOq/yvAJ9YBT6HfQJ0CI/\nsEU3EUQIMP5LnO0LMuspKVz5ddW9vhhv3glkHyeLLShYS8KRPxTmUKDIIQ4TpiA6\nDLmWLl65owKBgQCU9AJwV0eXJ47BlqnclVl+lfhSoSPjn72IDRijASAsh4Q0T9Qh\nMin3bI7ncLFjeVArDIjau/31r2IYYtNA8kVhzY5ZXO7FsWK0zGfRdExxiJAD/f9M\n/+KwVKReofCM7ZBGfYIomvzq22fPdxfCQAVlpIDPG6/0jCOi09iuEtogQQKBgF94\nWW3MPuCfwgFNhOTVaXl41HLFjb6g5hlc3zL9VBUfVvkAs8cxThX7E09ToXKJuTh0\nyPOF7X6Wq5WO+zaVR3nnNgkASb5qnjXLXeXq+COmYhx4lhPLr9mNtp3GEWNU+ps1\nZGOoiceadguG06iPOvZO5r4CTIoqv/7tR/USRoeFAoGALIGCHSs+FHJEpUNBURQ3\nUM1hW2bEaOkTQVtMhC14/xECYxPTQlX6YoChEL4x0rd8WpFlR5vsKaDYbyEoLf0i\nC+htMoWD2+hufl0mc6O8It2XfichxL9ZUYNVGiAVjjI/3ew+KqQxOaw+TJCV7ybp\n7/7/fUDdlSiyEgu5JA1B+3A=\n-----END PRIVATE KEY-----\n",
  "client_email": "va-service-account@voiceassist-188815.iam.gserviceaccount.com",
  "client_id": "108106413796555845897",
  "auth_uri": "https://accounts.google.com/o/oauth2/auth",
  "token_uri": "https://accounts.google.com/o/oauth2/token",
  "auth_provider_x509_cert_url": "https://www.googleapis.com/oauth2/v1/certs",
  "client_x509_cert_url": "https://www.googleapis.com/robot/v1/metadata/x509/va-service-account%40voiceassist-188815.iam.gserviceaccount.com"
}
